{
  "project_info": {
    "project_number": "175736057693",
    "firebase_url": "https://weedmaps-393c1.firebaseio.com",
    "project_id": "weedmaps-393c1",
    "storage_bucket": "weedmaps-393c1.appspot.com"
  },
  "client": [
    {
      "client_info": {
        "mobilesdk_app_id": "1:175736057693:android:49f31324ee68768db5c2b4",
        "android_client_info": {
          "package_name": "com.admin.weedgifter"
        }
      },
      "oauth_client": [
        {
          "client_id": "175736057693-cum2p0cc2rgr63msv5jmmf2cq36eig55.apps.googleusercontent.com",
          "client_type": 3
        }
      ],
      "api_key": [
        {
          "current_key": "AIzaSyDiidBAqj-2WEuMc7UwVQVkYGbu_vepjSM"
        }
      ],
      "services": {
        "appinvite_service": {
          "other_platform_oauth_client": [
            {
              "client_id": "175736057693-cum2p0cc2rgr63msv5jmmf2cq36eig55.apps.googleusercontent.com",
              "client_type": 3
            }
          ]
        }
      }
    },
    {
      "client_info": {
        "mobilesdk_app_id": "1:175736057693:android:3bd99fdac0b53a04b5c2b4",
        "android_client_info": {
          "package_name": "com.admin.weedmaps"
        }
      },
      "oauth_client": [
        {
          "client_id": "175736057693-8dnak9ac7gdo4ejds8rvjo4nagu3hklr.apps.googleusercontent.com",
          "client_type": 1,
          "android_info": {
            "package_name": "com.admin.weedmaps",
            "certificate_hash": "68d34771ca0e3caa9f3b3d26d475a8504ac11734"
          }
        },
        {
          "client_id": "175736057693-cum2p0cc2rgr63msv5jmmf2cq36eig55.apps.googleusercontent.com",
          "client_type": 3
        }
      ],
      "api_key": [
        {
          "current_key": "AIzaSyDiidBAqj-2WEuMc7UwVQVkYGbu_vepjSM"
        }
      ],
      "services": {
        "appinvite_service": {
          "other_platform_oauth_client": [
            {
              "client_id": "175736057693-cum2p0cc2rgr63msv5jmmf2cq36eig55.apps.googleusercontent.com",
              "client_type": 3
            }
          ]
        }
      }
    }
  ],
  "configuration_version": "1"
}